(footprint "LOGO" (version 20221018) (generator bitmap2component)
  (layer "F.Cu")
  (attr board_only exclude_from_pos_files exclude_from_bom)
  (fp_text reference "G***" (at 0 0) (layer "F.SilkS")
      (effects (font (size 1.5 1.5) (thickness 0.3)))
    (tstamp 1404e45f-c5f4-4c01-8b9e-7fdce2183f40)
  )
  (fp_text value "LOGO" (at 0.75 0) (layer "F.SilkS") hide
      (effects (font (size 1.5 1.5) (thickness 0.3)))
    (tstamp a99a1b5c-80a7-43cc-bce6-c84aba2f4f7c)
  )
  (fp_poly
    (pts
      (xy 0.680758 -9.974430)
      (xy 1.226973 -9.922210)
      (xy 1.768743 -9.840491)
      (xy 2.303667 -9.729436)
      (xy 2.829345 -9.589210)
      (xy 2.832478 -9.588278)
      (xy 3.363334 -9.414483)
      (xy 3.879551 -9.213490)
      (xy 4.383099 -8.984426)
      (xy 4.875951 -8.726422)
      (xy 5.171756 -8.554711)
      (xy 5.233619 -8.516772)
      (xy 5.308013 -8.470085)
      (xy 5.390691 -8.417428)
      (xy 5.477405 -8.361579)
      (xy 5.563910 -8.305316)
      (xy 5.645958 -8.251417)
      (xy 5.719303 -8.202659)
      (xy 5.779697 -8.161822)
      (xy 5.822895 -8.131683)
      (xy 5.844649 -8.115019)
      (xy 5.845908 -8.113728)
      (xy 5.860811 -8.101330)
      (xy 5.895784 -8.074293)
      (xy 5.945718 -8.036513)
      (xy 6.005509 -7.991885)
      (xy 6.010031 -7.988532)
      (xy 6.167566 -7.869708)
      (xy 6.313337 -7.755050)
      (xy 6.452411 -7.640112)
      (xy 6.589855 -7.520447)
      (xy 6.730736 -7.391611)
      (xy 6.880120 -7.249156)
      (xy 7.043075 -7.088636)
      (xy 7.096369 -7.035285)
      (xy 7.332981 -6.790914)
      (xy 7.549146 -6.552883)
      (xy 7.752053 -6.312925)
      (xy 7.948892 -6.062769)
      (xy 7.995222 -6.001373)
      (xy 8.319610 -5.542402)
      (xy 8.616595 -5.068595)
      (xy 8.885832 -4.580773)
      (xy 9.126977 -4.079759)
      (xy 9.339684 -3.566374)
      (xy 9.523607 -3.041440)
      (xy 9.678403 -2.505780)
      (xy 9.803726 -1.960215)
      (xy 9.885099 -1.500554)
      (xy 9.952825 -0.957351)
      (xy 9.990164 -0.409812)
      (xy 9.997264 0.139897)
      (xy 9.974273 0.689613)
      (xy 9.921338 1.237172)
      (xy 9.838608 1.780409)
      (xy 9.726231 2.317161)
      (xy 9.589157 2.829169)
      (xy 9.413655 3.365082)
      (xy 9.210032 3.887439)
      (xy 8.978474 4.395868)
      (xy 8.719167 4.889998)
      (xy 8.432299 5.369457)
      (xy 8.118056 5.833875)
      (xy 7.995907 6.000459)
      (xy 7.703931 6.370638)
      (xy 7.390422 6.731174)
      (xy 7.059688 7.077756)
      (xy 6.716039 7.406073)
      (xy 6.363786 7.711817)
      (xy 6.007238 7.990677)
      (xy 6.001635 7.994814)
      (xy 5.942974 8.038384)
      (xy 5.893922 8.075393)
      (xy 5.859765 8.101814)
      (xy 5.845908 8.113460)
      (xy 5.829318 8.126528)
      (xy 5.790856 8.153565)
      (xy 5.734952 8.191643)
      (xy 5.666035 8.237834)
      (xy 5.588535 8.289208)
      (xy 5.506881 8.342839)
      (xy 5.425502 8.395797)
      (xy 5.348828 8.445155)
      (xy 5.281289 8.487983)
      (xy 5.248410 8.508456)
      (xy 4.769528 8.785711)
      (xy 4.276957 9.035514)
      (xy 3.772179 9.257486)
      (xy 3.256676 9.451245)
      (xy 2.731929 9.616412)
      (xy 2.199421 9.752604)
      (xy 1.660633 9.859443)
      (xy 1.117047 9.936547)
      (xy 0.570144 9.983536)
      (xy 0.021407 10.000029)
      (xy -0.508000 9.986700)
      (xy -1.065049 9.941903)
      (xy -1.617123 9.866504)
      (xy -2.162999 9.760885)
      (xy -2.701451 9.625428)
      (xy -3.231256 9.460515)
      (xy -3.751189 9.266528)
      (xy -4.260025 9.043848)
      (xy -4.756540 8.792857)
      (xy -5.239509 8.513938)
      (xy -5.248816 8.508204)
      (xy -5.308124 8.470974)
      (xy -5.381183 8.424116)
      (xy -5.463027 8.370922)
      (xy -5.548689 8.314684)
      (xy -5.633203 8.258692)
      (xy -5.711601 8.206239)
      (xy -5.778917 8.160616)
      (xy -5.830184 8.125114)
      (xy -5.860435 8.103026)
      (xy -5.861514 8.102166)
      (xy -5.883137 8.085437)
      (xy -5.923623 8.054666)
      (xy -5.976799 8.014531)
      (xy -6.025662 7.977823)
      (xy -6.182593 7.858288)
      (xy -6.326825 7.744052)
      (xy -6.463572 7.630526)
      (xy -6.598049 7.513118)
      (xy -6.735471 7.387238)
      (xy -6.881054 7.248294)
      (xy -7.040013 7.091696)
      (xy -7.096369 7.035285)
      (xy -7.480156 6.627993)
      (xy -7.838410 6.202748)
      (xy -8.170852 5.760027)
      (xy -8.477202 5.300303)
      (xy -8.757180 4.824053)
      (xy -8.860633 4.623007)
      (xy -6.305042 4.623007)
      (xy -6.286669 4.705774)
      (xy -6.249085 4.800012)
      (xy -6.143157 4.993415)
      (xy -6.014115 5.167433)
      (xy -5.863849 5.320085)
      (xy -5.694253 5.449389)
      (xy -5.548923 5.533188)
      (xy -5.365058 5.610216)
      (xy -5.167564 5.664815)
      (xy -4.962485 5.696529)
      (xy -4.755863 5.704904)
      (xy -4.553742 5.689484)
      (xy -4.362164 5.649814)
      (xy -4.292107 5.627843)
      (xy -4.242158 5.611076)
      (xy -4.204529 5.599483)
      (xy -4.188930 5.595815)
      (xy -4.169413 5.605393)
      (xy -4.131708 5.631314)
      (xy -4.081172 5.669359)
      (xy -4.023166 5.715310)
      (xy -3.963047 5.764947)
      (xy -3.906175 5.814052)
      (xy -3.870268 5.846689)
      (xy -3.800241 5.919682)
      (xy -3.747739 5.994262)
      (xy -3.715107 6.056306)
      (xy -3.678004 6.128626)
      (xy -3.634159 6.205740)
      (xy -3.593998 6.269528)
      (xy -3.527980 6.366744)
      (xy -3.537083 6.591414)
      (xy -3.539845 6.694395)
      (xy -3.539159 6.777424)
      (xy -3.535131 6.836462)
      (xy -3.529897 6.862812)
      (xy -3.498225 6.912699)
      (xy -3.450475 6.941531)
      (xy -3.394827 6.947966)
      (xy -3.339463 6.930665)
      (xy -3.302000 6.900130)
      (xy -3.285824 6.878677)
      (xy -3.275488 6.853859)
      (xy -3.269707 6.818422)
      (xy -3.267194 6.765116)
      (xy -3.266670 6.700820)
      (xy -3.261240 6.516992)
      (xy -3.246164 6.317817)
      (xy -3.222732 6.113874)
      (xy -3.192237 5.915741)
      (xy -3.155972 5.733998)
      (xy -3.140877 5.671155)
      (xy -3.055100 5.391683)
      (xy -2.944543 5.130590)
      (xy -2.809819 4.888613)
      (xy -2.651538 4.666489)
      (xy -2.470310 4.464954)
      (xy -2.266748 4.284747)
      (xy -2.041461 4.126604)
      (xy -1.795061 3.991262)
      (xy -1.719385 3.956224)
      (xy -1.654068 3.925307)
      (xy -1.597500 3.895104)
      (xy -1.557286 3.869857)
      (xy -1.543539 3.858137)
      (xy -1.520434 3.809466)
      (xy -1.518122 3.751321)
      (xy -1.536108 3.697122)
      (xy -1.550171 3.678146)
      (xy -1.582149 3.653112)
      (xy -1.621092 3.642001)
      (xy -1.671065 3.645475)
      (xy -1.736136 3.664196)
      (xy -1.820368 3.698828)
      (xy -1.896383 3.734580)
      (xy -2.162520 3.879981)
      (xy -2.404991 4.045701)
      (xy -2.623859 4.231821)
      (xy -2.819183 4.438424)
      (xy -2.991025 4.665591)
      (xy -3.139445 4.913405)
      (xy -3.264503 5.181947)
      (xy -3.366261 5.471299)
      (xy -3.444780 5.781544)
      (xy -3.456156 5.838092)
      (xy -3.474328 5.931877)
      (xy -3.504518 5.861538)
      (xy -3.546952 5.749469)
      (xy -3.589894 5.611294)
      (xy -3.632111 5.452120)
      (xy -3.672368 5.277054)
      (xy -3.709433 5.091202)
      (xy -3.742071 4.899672)
      (xy -3.750768 4.842184)
      (xy -3.782232 4.627815)
      (xy -3.701676 4.521754)
      (xy -3.637130 4.425538)
      (xy -3.572183 4.308791)
      (xy -3.511824 4.181776)
      (xy -3.461044 4.054756)
      (xy -3.433545 3.970215)
      (xy -3.371331 3.702953)
      (xy -3.338862 3.438542)
      (xy -3.335879 3.178583)
      (xy -3.362125 2.924676)
      (xy -3.417343 2.678422)
      (xy -3.501276 2.441421)
      (xy -3.613665 2.215275)
      (xy -3.749068 2.008554)
      (xy -3.793605 1.952429)
      (xy -3.849164 1.888315)
      (xy -3.910616 1.821498)
      (xy -3.972832 1.757266)
      (xy -4.030683 1.700908)
      (xy -4.079040 1.657713)
      (xy -4.112773 1.632967)
      (xy -4.114024 1.632288)
      (xy -4.180380 1.611900)
      (xy -4.244890 1.618563)
      (xy -4.286589 1.640832)
      (xy -4.316084 1.673932)
      (xy -4.353981 1.731435)
      (xy -4.397843 1.808420)
      (xy -4.445235 1.899969)
      (xy -4.493722 2.001160)
      (xy -4.540869 2.107074)
      (xy -4.584239 2.212791)
      (xy -4.621397 2.313389)
      (xy -4.625588 2.325670)
      (xy -4.706905 2.606131)
      (xy -4.759176 2.879468)
      (xy -4.782409 3.144894)
      (xy -4.776609 3.401620)
      (xy -4.741783 3.648858)
      (xy -4.677939 3.885819)
      (xy -4.611127 4.056073)
      (xy -4.525347 4.212059)
      (xy -4.414501 4.357779)
      (xy -4.284618 4.486213)
      (xy -4.165128 4.575656)
      (xy -4.120190 4.605242)
      (xy -4.084914 4.629417)
      (xy -4.070526 4.640098)
      (xy -4.062159 4.660254)
      (xy -4.051487 4.705076)
      (xy -4.039811 4.768179)
      (xy -4.028435 4.843176)
      (xy -4.027165 4.852577)
      (xy -4.012505 4.953271)
      (xy -3.994048 5.066759)
      (xy -3.974534 5.176690)
      (xy -3.962024 5.241242)
      (xy -3.947300 5.313928)
      (xy -3.935153 5.374360)
      (xy -3.926773 5.416587)
      (xy -3.923348 5.434661)
      (xy -3.923323 5.434898)
      (xy -3.935072 5.428538)
      (xy -3.965850 5.408733)
      (xy -4.008335 5.380216)
      (xy -4.056660 5.344736)
      (xy -4.085204 5.314583)
      (xy -4.101556 5.279985)
      (xy -4.109301 5.250218)
      (xy -4.158088 5.096935)
      (xy -4.232630 4.953869)
      (xy -4.252872 4.923641)
      (xy -4.351513 4.807563)
      (xy -4.476125 4.700930)
      (xy -4.622200 4.606249)
      (xy -4.785228 4.526023)
      (xy -4.960699 4.462758)
      (xy -5.144104 4.418957)
      (xy -5.169273 4.414664)
      (xy -5.278062 4.401700)
      (xy -5.400280 4.395106)
      (xy -5.531003 4.394421)
      (xy -5.665306 4.399183)
      (xy -5.798266 4.408931)
      (xy -5.924956 4.423204)
      (xy -6.040454 4.441540)
      (xy -6.139834 4.463478)
      (xy -6.218171 4.488556)
      (xy -6.270542 4.516313)
      (xy -6.272738 4.518043)
      (xy -6.300414 4.560254)
      (xy -6.305042 4.623007)
      (xy -8.860633 4.623007)
      (xy -9.010506 4.331752)
      (xy -9.236900 3.823874)
      (xy -9.422935 3.335419)
      (xy -7.341151 3.335419)
      (xy -7.316321 3.502117)
      (xy -7.260884 3.673932)
      (xy -7.223159 3.759200)
      (xy -7.150519 3.887626)
      (xy -7.069686 3.986320)
      (xy -6.979815 4.055937)
      (xy -6.880061 4.097129)
      (xy -6.769579 4.110551)
      (xy -6.768962 4.110549)
      (xy -6.669927 4.101554)
      (xy -6.600917 4.080421)
      (xy -6.522889 4.031094)
      (xy -6.451398 3.960644)
      (xy -6.396151 3.879047)
      (xy -6.387236 3.860800)
      (xy -6.370287 3.813301)
      (xy -6.358820 3.754353)
      (xy -6.351600 3.676237)
      (xy -6.348968 3.621685)
      (xy -6.355708 3.428144)
      (xy -6.391282 3.245803)
      (xy -6.456053 3.072948)
      (xy -6.472742 3.038974)
      (xy -6.512386 2.965976)
      (xy -6.553894 2.900590)
      (xy -6.602271 2.836348)
      (xy -6.662524 2.766778)
      (xy -6.739660 2.685411)
      (xy -6.770974 2.653552)
      (xy -6.840635 2.587710)
      (xy -6.897919 2.547043)
      (xy -6.947573 2.532063)
      (xy -6.994340 2.543283)
      (xy -7.042965 2.581214)
      (xy -7.098193 2.646370)
      (xy -7.132057 2.692526)
      (xy -7.230825 2.852391)
      (xy -7.298519 3.011920)
      (xy -7.335255 3.172474)
      (xy -7.341151 3.335419)
      (xy -9.422935 3.335419)
      (xy -9.436084 3.300896)
      (xy -9.604533 2.774461)
      (xy -9.742839 2.243638)
      (xy -9.851485 1.704843)
      (xy -9.930335 1.160168)
      (xy -9.979251 0.611710)
      (xy -9.992339 0.229622)
      (xy -7.878020 0.229622)
      (xy -7.876779 0.284177)
      (xy -7.873121 0.363587)
      (xy -7.873056 0.364914)
      (xy -7.864849 0.483543)
      (xy -7.851797 0.579835)
      (xy -7.831827 0.662588)
      (xy -7.802862 0.740605)
      (xy -7.766963 0.814857)
      (xy -7.697540 0.920920)
      (xy -7.603836 1.025542)
      (xy -7.492557 1.123133)
      (xy -7.370407 1.208101)
      (xy -7.244090 1.274853)
      (xy -7.188795 1.297057)
      (xy -7.107800 1.317553)
      (xy -7.015423 1.327433)
      (xy -6.922528 1.326634)
      (xy -6.839976 1.315091)
      (xy -6.791569 1.299427)
      (xy -6.698339 1.243371)
      (xy -6.628186 1.169051)
      (xy -6.595859 1.115317)
      (xy -6.574209 1.066236)
      (xy -6.562720 1.018237)
      (xy -6.558919 0.958343)
      (xy -6.559090 0.922215)
      (xy -6.568301 0.822239)
      (xy -6.594259 0.731224)
      (xy -6.639841 0.643690)
      (xy -6.707925 0.554156)
      (xy -6.801389 0.457143)
      (xy -6.805211 0.453492)
      (xy -6.928011 0.348094)
      (xy -7.053905 0.265128)
      (xy -7.189213 0.201728)
      (xy -7.340255 0.155028)
      (xy -7.513349 0.122161)
      (xy -7.545612 0.117719)
      (xy -7.638577 0.105814)
      (xy -7.705985 0.098508)
      (xy -7.753246 0.096107)
      (xy -7.785766 0.098913)
      (xy -7.808956 0.107231)
      (xy -7.828223 0.121365)
      (xy -7.841751 0.134360)
      (xy -7.858708 0.152291)
      (xy -7.869837 0.169959)
      (xy -7.875990 0.193642)
      (xy -7.878020 0.229622)
      (xy -9.992339 0.229622)
      (xy -9.998095 0.061563)
      (xy -9.986729 -0.488178)
      (xy -9.945017 -1.035419)
      (xy -9.943647 -1.046049)
      (xy -3.128256 -1.046049)
      (xy -3.107973 -0.812567)
      (xy -3.101658 -0.773723)
      (xy -3.045947 -0.542863)
      (xy -2.960413 -0.317357)
      (xy -2.846331 -0.099337)
      (xy -2.704972 0.109067)
      (xy -2.537610 0.305725)
      (xy -2.349543 0.485045)
      (xy -2.268501 0.554892)
      (xy -2.213628 0.984738)
      (xy -2.178823 1.257297)
      (xy -2.147673 1.500725)
      (xy -2.119878 1.716899)
      (xy -2.095135 1.907698)
      (xy -2.073143 2.075001)
      (xy -2.053600 2.220687)
      (xy -2.036206 2.346632)
      (xy -2.020660 2.454717)
      (xy -2.006658 2.546819)
      (xy -1.993901 2.624817)
      (xy -1.982086 2.690589)
      (xy -1.970913 2.746014)
      (xy -1.960080 2.792970)
      (xy -1.949285 2.833335)
      (xy -1.938227 2.868989)
      (xy -1.926605 2.901809)
      (xy -1.914117 2.933674)
      (xy -1.900462 2.966462)
      (xy -1.892720 2.984687)
      (xy -1.797532 3.173067)
      (xy -1.681718 3.340383)
      (xy -1.546937 3.484371)
      (xy -1.492739 3.531162)
      (xy -1.456230 3.557386)
      (xy -1.396404 3.596207)
      (xy -1.317336 3.645164)
      (xy -1.223104 3.701793)
      (xy -1.117785 3.763631)
      (xy -1.005454 3.828214)
      (xy -0.937846 3.866437)
      (xy -0.825356 3.929677)
      (xy -0.719032 3.989548)
      (xy -0.622607 4.043943)
      (xy -0.539811 4.090753)
      (xy -0.474376 4.127870)
      (xy -0.430033 4.153183)
      (xy -0.414216 4.162352)
      (xy -0.385408 4.183843)
      (xy -0.351105 4.218639)
      (xy -0.308742 4.269891)
      (xy -0.255754 4.340749)
      (xy -0.189574 4.434362)
      (xy -0.171939 4.459847)
      (xy -0.098676 4.563806)
      (xy -0.038625 4.644215)
      (xy 0.007427 4.700083)
      (xy 0.038692 4.730419)
      (xy 0.046892 4.735186)
      (xy 0.107143 4.743542)
      (xy 0.164633 4.727033)
      (xy 0.190822 4.707784)
      (xy 0.208013 4.686061)
      (xy 0.238383 4.642952)
      (xy 0.278478 4.583545)
      (xy 0.324848 4.512924)
      (xy 0.357249 4.462584)
      (xy 0.418520 4.367055)
      (xy 0.466059 4.294388)
      (xy 0.502677 4.240919)
      (xy 0.531187 4.202987)
      (xy 0.554401 4.176928)
      (xy 0.575133 4.159080)
      (xy 0.596194 4.145780)
      (xy 0.603536 4.141847)
      (xy 0.630639 4.127166)
      (xy 0.679977 4.099897)
      (xy 0.746562 4.062820)
      (xy 0.825405 4.018713)
      (xy 0.911517 3.970356)
      (xy 0.921853 3.964539)
      (xy 1.017094 3.910966)
      (xy 1.113766 3.856646)
      (xy 1.204533 3.805699)
      (xy 1.282061 3.762241)
      (xy 1.334831 3.732725)
      (xy 1.427983 3.680090)
      (xy 1.499634 3.637597)
      (xy 1.555971 3.600881)
      (xy 1.603186 3.565575)
      (xy 1.647467 3.527314)
      (xy 1.695003 3.481733)
      (xy 1.705592 3.471207)
      (xy 1.836573 3.319145)
      (xy 1.946647 3.145057)
      (xy 2.036005 2.948497)
      (xy 2.104840 2.729017)
      (xy 2.153342 2.486172)
      (xy 2.165101 2.399323)
      (xy 2.171713 2.348367)
      (xy 2.182505 2.270073)
      (xy 2.196959 2.168007)
      (xy 2.214556 2.045737)
      (xy 2.234780 1.906831)
      (xy 2.257110 1.754856)
      (xy 2.281029 1.593381)
      (xy 2.306020 1.425971)
      (xy 2.320642 1.328615)
      (xy 2.453585 0.445477)
      (xy 2.522836 0.382954)
      (xy 2.657659 0.245556)
      (xy 2.785944 0.084931)
      (xy 2.902508 -0.090918)
      (xy 3.002171 -0.273988)
      (xy 3.079751 -0.456273)
      (xy 3.095236 -0.501237)
      (xy 3.155727 -0.733800)
      (xy 3.185856 -0.965634)
      (xy 3.186517 -1.195388)
      (xy 3.158602 -1.421710)
      (xy 3.103005 -1.643247)
      (xy 3.020620 -1.858647)
      (xy 2.912339 -2.066560)
      (xy 2.779057 -2.265632)
      (xy 2.621666 -2.454512)
      (xy 2.441059 -2.631848)
      (xy 2.238131 -2.796289)
      (xy 2.013774 -2.946481)
      (xy 1.768882 -3.081074)
      (xy 1.504348 -3.198716)
      (xy 1.253849 -3.287833)
      (xy 1.152422 -3.317602)
      (xy 1.037401 -3.347467)
      (xy 0.915300 -3.376093)
      (xy 0.792634 -3.402145)
      (xy 0.675917 -3.424290)
      (xy 0.571663 -3.441193)
      (xy 0.486386 -3.451520)
      (xy 0.442006 -3.454114)
      (xy 0.425212 -3.468514)
      (xy 0.408452 -3.505490)
      (xy 0.393883 -3.556427)
      (xy 0.383659 -3.612712)
      (xy 0.379935 -3.665730)
      (xy 0.381975 -3.694077)
      (xy 0.414940 -3.811757)
      (xy 0.472196 -3.910436)
      (xy 0.552027 -3.988467)
      (xy 0.652720 -4.044200)
      (xy 0.772560 -4.075986)
      (xy 0.780142 -4.077071)
      (xy 0.829539 -4.084206)
      (xy 0.867980 -4.092921)
      (xy 0.896838 -4.106884)
      (xy 0.917486 -4.129763)
      (xy 0.931299 -4.165226)
      (xy 0.939650 -4.216940)
      (xy 0.943911 -4.288574)
      (xy 0.945457 -4.383794)
      (xy 0.945662 -4.506269)
      (xy 0.945661 -4.519080)
      (xy 0.945661 -4.879507)
      (xy 0.899358 -4.919335)
      (xy 0.875638 -4.938167)
      (xy 0.852870 -4.949252)
      (xy 0.822953 -4.953883)
      (xy 0.777783 -4.953353)
      (xy 0.712383 -4.949179)
      (xy 0.515075 -4.919855)
      (xy 0.327098 -4.861076)
      (xy 0.150379 -4.773758)
      (xy -0.013157 -4.658819)
      (xy -0.134759 -4.545970)
      (xy -0.261291 -4.394682)
      (xy -0.359185 -4.234128)
      (xy -0.429359 -4.061969)
      (xy -0.472729 -3.875868)
      (xy -0.490212 -3.673485)
      (xy -0.490673 -3.638062)
      (xy -0.491208 -3.556057)
      (xy -0.492726 -3.500276)
      (xy -0.496045 -3.465680)
      (xy -0.501985 -3.447234)
      (xy -0.511366 -3.439898)
      (xy -0.523109 -3.438634)
      (xy -0.549161 -3.435573)
      (xy -0.599530 -3.427241)
      (xy -0.667931 -3.414761)
      (xy -0.748082 -3.399255)
      (xy -0.785854 -3.391682)
      (xy -1.081565 -3.319931)
      (xy -1.362031 -3.228345)
      (xy -1.626124 -3.118200)
      (xy -1.872719 -2.990769)
      (xy -2.100687 -2.847326)
      (xy -2.308902 -2.689146)
      (xy -2.496237 -2.517502)
      (xy -2.661564 -2.333669)
      (xy -2.803757 -2.138921)
      (xy -2.921689 -1.934532)
      (xy -3.014231 -1.721776)
      (xy -3.080258 -1.501928)
      (xy -3.118642 -1.276260)
      (xy -3.128256 -1.046049)
      (xy -9.943647 -1.046049)
      (xy -9.885061 -1.500554)
      (xy -9.856266 -1.658765)
      (xy -7.393005 -1.658765)
      (xy -7.390333 -1.599104)
      (xy -7.383354 -1.522843)
      (xy -7.373194 -1.437869)
      (xy -7.360982 -1.352068)
      (xy -7.347845 -1.273324)
      (xy -7.334911 -1.209525)
      (xy -7.323305 -1.168557)
      (xy -7.322715 -1.167092)
      (xy -7.294403 -1.131254)
      (xy -7.246111 -1.114735)
      (xy -7.176248 -1.117382)
      (xy -7.083220 -1.139043)
      (xy -7.070662 -1.142839)
      (xy -6.943178 -1.187578)
      (xy -6.837722 -1.238011)
      (xy -6.745066 -1.299481)
      (xy -6.655977 -1.377331)
      (xy -6.642389 -1.390713)
      (xy -6.526852 -1.527505)
      (xy -6.437900 -1.679695)
      (xy -6.376728 -1.844449)
      (xy -6.344528 -2.018932)
      (xy -6.339652 -2.110154)
      (xy -6.349480 -2.244415)
      (xy -6.381177 -2.358967)
      (xy -6.433599 -2.452448)
      (xy -6.505604 -2.523493)
      (xy -6.596048 -2.570742)
      (xy -6.703790 -2.592831)
      (xy -6.745704 -2.594365)
      (xy -6.852962 -2.584018)
      (xy -6.947912 -2.551245)
      (xy -7.041287 -2.492334)
      (xy -7.041830 -2.491919)
      (xy -7.116364 -2.419734)
      (xy -7.187157 -2.322560)
      (xy -7.251572 -2.206650)
      (xy -7.306974 -2.078259)
      (xy -7.350728 -1.943638)
      (xy -7.380198 -1.809041)
      (xy -7.392747 -1.680721)
      (xy -7.393005 -1.658765)
      (xy -9.856266 -1.658765)
      (xy -9.784368 -2.053799)
      (xy -9.653926 -2.597831)
      (xy -9.494085 -3.131815)
      (xy -9.305195 -3.654917)
      (xy -9.260906 -3.759006)
      (xy -6.174573 -3.759006)
      (xy -6.170707 -3.617854)
      (xy -6.155252 -3.481686)
      (xy -6.128613 -3.361440)
      (xy -6.120941 -3.337169)
      (xy -6.100156 -3.284815)
      (xy -6.069440 -3.218830)
      (xy -6.031898 -3.144745)
      (xy -5.990636 -3.068092)
      (xy -5.948759 -2.994401)
      (xy -5.909372 -2.929205)
      (xy -5.875582 -2.878035)
      (xy -5.850494 -2.846421)
      (xy -5.841423 -2.839329)
      (xy -5.778144 -2.830000)
      (xy -5.708239 -2.848549)
      (xy -5.656776 -2.878492)
      (xy -5.614443 -2.912489)
      (xy -5.560265 -2.961058)
      (xy -5.503536 -3.015736)
      (xy -5.481881 -3.037763)
      (xy -5.375603 -3.167514)
      (xy -5.297914 -3.307654)
      (xy -5.248196 -3.459936)
      (xy -5.225826 -3.626115)
      (xy -5.226522 -3.759200)
      (xy -5.246281 -3.930025)
      (xy -5.284297 -4.077152)
      (xy -5.340285 -4.199986)
      (xy -5.413960 -4.297930)
      (xy -5.505035 -4.370389)
      (xy -5.524411 -4.381293)
      (xy -5.596153 -4.406069)
      (xy -5.682776 -4.416610)
      (xy -5.772093 -4.412942)
      (xy -5.851919 -4.395088)
      (xy -5.884985 -4.380564)
      (xy -5.976252 -4.318505)
      (xy -6.047280 -4.241898)
      (xy -6.101566 -4.145812)
      (xy -6.142607 -4.025314)
      (xy -6.145921 -4.012508)
      (xy -6.166446 -3.894204)
      (xy -6.174573 -3.759006)
      (xy -9.260906 -3.759006)
      (xy -9.087607 -4.166302)
      (xy -8.841671 -4.665137)
      (xy -8.567737 -5.150586)
      (xy -8.526556 -5.214933)
      (xy -4.267268 -5.214933)
      (xy -4.253992 -5.115848)
      (xy -4.237657 -5.072185)
      (xy -4.203835 -5.013487)
      (xy -4.159171 -4.966878)
      (xy -4.096187 -4.925756)
      (xy -4.040526 -4.898223)
      (xy -3.948578 -4.865909)
      (xy -3.861481 -4.858224)
      (xy -3.769732 -4.875086)
      (xy -3.712308 -4.895410)
      (xy -3.658367 -4.919792)
      (xy -3.619719 -4.946627)
      (xy -3.585544 -4.985060)
      (xy -3.556000 -5.027507)
      (xy -3.423374 -5.205985)
      (xy -3.264185 -5.383039)
      (xy -3.083031 -5.554745)
      (xy -2.884510 -5.717178)
      (xy -2.673220 -5.866413)
      (xy -2.453761 -5.998525)
      (xy -2.360942 -6.047615)
      (xy -2.186096 -6.131836)
      (xy -2.022257 -6.200594)
      (xy -1.856728 -6.258803)
      (xy -1.686441 -6.308783)
      (xy -1.607877 -6.331177)
      (xy -1.538715 -6.352976)
      (xy -1.485374 -6.372007)
      (xy -1.454268 -6.386097)
      (xy -1.450640 -6.388660)
      (xy -1.419983 -6.434081)
      (xy -1.412642 -6.488999)
      (xy -1.426956 -6.544112)
      (xy -1.461268 -6.590115)
      (xy -1.489955 -6.609089)
      (xy -1.511549 -6.617338)
      (xy -1.536427 -6.621020)
      (xy -1.569069 -6.619377)
      (xy -1.613956 -6.611647)
      (xy -1.675567 -6.597072)
      (xy -1.758380 -6.574889)
      (xy -1.860062 -6.546280)
      (xy -2.156557 -6.446391)
      (xy -2.445985 -6.318391)
      (xy -2.725063 -6.164566)
      (xy -2.990507 -5.987205)
      (xy -3.239034 -5.788594)
      (xy -3.467358 -5.571023)
      (xy -3.672197 -5.336779)
      (xy -3.757283 -5.224540)
      (xy -3.805137 -5.167326)
      (xy -3.848492 -5.137656)
      (xy -3.892556 -5.133360)
      (xy -3.937271 -5.149468)
      (xy -3.968692 -5.173288)
      (xy -3.983655 -5.205233)
      (xy -3.981225 -5.247055)
      (xy -3.960468 -5.300507)
      (xy -3.920447 -5.367344)
      (xy -3.860230 -5.449316)
      (xy -3.778879 -5.548179)
      (xy -3.675461 -5.665685)
      (xy -3.642645 -5.701922)
      (xy -3.387014 -5.961049)
      (xy -3.117082 -6.192405)
      (xy -2.832689 -6.396098)
      (xy -2.533678 -6.572238)
      (xy -2.219888 -6.720934)
      (xy -2.061147 -6.783638)
      (xy -1.729211 -6.903091)
      (xy -1.421217 -7.006770)
      (xy -1.137664 -7.094531)
      (xy -0.879048 -7.166229)
      (xy -0.645866 -7.221719)
      (xy -0.438616 -7.260859)
      (xy -0.397309 -7.267150)
      (xy -0.130762 -7.298644)
      (xy 0.153113 -7.319058)
      (xy 0.445759 -7.328353)
      (xy 0.738618 -7.326492)
      (xy 1.023134 -7.313435)
      (xy 1.290751 -7.289145)
      (xy 1.398954 -7.275172)
      (xy 1.500208 -7.259199)
      (xy 1.609866 -7.239196)
      (xy 1.723508 -7.216244)
      (xy 1.836713 -7.191421)
      (xy 1.945062 -7.165808)
      (xy 2.044136 -7.140484)
      (xy 2.129514 -7.116528)
      (xy 2.196776 -7.095021)
      (xy 2.241503 -7.077042)
      (xy 2.258591 -7.065196)
      (xy 2.254203 -7.047982)
      (xy 2.237349 -7.007258)
      (xy 2.210083 -6.947123)
      (xy 2.174462 -6.871672)
      (xy 2.132540 -6.785004)
      (xy 2.086373 -6.691215)
      (xy 2.038016 -6.594402)
      (xy 1.989524 -6.498662)
      (xy 1.942953 -6.408093)
      (xy 1.900358 -6.326790)
      (xy 1.863794 -6.258853)
      (xy 1.835317 -6.208377)
      (xy 1.816982 -6.179459)
      (xy 1.811596 -6.174154)
      (xy 1.788591 -6.179826)
      (xy 1.750082 -6.193926)
      (xy 1.738421 -6.198735)
      (xy 1.542200 -6.278410)
      (xy 1.365380 -6.342614)
      (xy 1.201356 -6.393222)
      (xy 1.043518 -6.432106)
      (xy 0.885261 -6.461140)
      (xy 0.750277 -6.478942)
      (xy 0.570105 -6.497622)
      (xy 0.416549 -6.509660)
      (xy 0.285510 -6.514253)
      (xy 0.172893 -6.510597)
      (xy 0.074601 -6.497887)
      (xy -0.013463 -6.475320)
      (xy -0.095396 -6.442091)
      (xy -0.175295 -6.397397)
      (xy -0.257256 -6.340435)
      (xy -0.345376 -6.270399)
      (xy -0.355527 -6.261941)
      (xy -0.487958 -6.152808)
      (xy -0.602147 -6.062835)
      (xy -0.702366 -5.989495)
      (xy -0.792886 -5.930263)
      (xy -0.877982 -5.882610)
      (xy -0.961924 -5.844011)
      (xy -1.048986 -5.811937)
      (xy -1.143439 -5.783863)
      (xy -1.180123 -5.774237)
      (xy -1.240327 -5.759357)
      (xy -1.292241 -5.748254)
      (xy -1.342184 -5.740363)
      (xy -1.396478 -5.735118)
      (xy -1.461444 -5.731955)
      (xy -1.543403 -5.730309)
      (xy -1.648675 -5.729615)
      (xy -1.680308 -5.729521)
      (xy -1.786525 -5.729642)
      (xy -1.889445 -5.730477)
      (xy -1.982295 -5.731915)
      (xy -2.058300 -5.733850)
      (xy -2.110689 -5.736172)
      (xy -2.115358 -5.736492)
      (xy -2.173129 -5.739729)
      (xy -2.208834 -5.737652)
      (xy -2.231484 -5.728345)
      (xy -2.250091 -5.709892)
      (xy -2.252128 -5.707407)
      (xy -2.274379 -5.661783)
      (xy -2.281645 -5.606638)
      (xy -2.273632 -5.555037)
      (xy -2.256221 -5.525285)
      (xy -2.233481 -5.506256)
      (xy -2.204964 -5.491583)
      (xy -2.165370 -5.480022)
      (xy -2.109394 -5.470329)
      (xy -2.031735 -5.461261)
      (xy -1.950605 -5.453638)
      (xy -1.721843 -5.442839)
      (xy -1.495976 -5.450424)
      (xy -1.278127 -5.475617)
      (xy -1.073418 -5.517641)
      (xy -0.886973 -5.575724)
      (xy -0.750277 -5.635310)
      (xy -0.659353 -5.686058)
      (xy -0.559821 -5.751103)
      (xy -0.448076 -5.833013)
      (xy -0.320515 -5.934357)
      (xy -0.257908 -5.986220)
      (xy -0.155214 -6.070467)
      (xy -0.068857 -6.135335)
      (xy 0.007605 -6.182857)
      (xy 0.080613 -6.215064)
      (xy 0.156611 -6.233988)
      (xy 0.242040 -6.241661)
      (xy 0.343341 -6.240115)
      (xy 0.466958 -6.231382)
      (xy 0.508000 -6.227786)
      (xy 0.663302 -6.212672)
      (xy 0.798958 -6.196282)
      (xy 0.920949 -6.177044)
      (xy 1.035259 -6.153388)
      (xy 1.147869 -6.123745)
      (xy 1.264763 -6.086543)
      (xy 1.391923 -6.040213)
      (xy 1.535331 -5.983185)
      (xy 1.696172 -5.915926)
      (xy 2.051110 -5.752777)
      (xy 2.383151 -5.573709)
      (xy 2.697167 -5.375474)
      (xy 2.998030 -5.154820)
      (xy 3.290611 -4.908498)
      (xy 3.499249 -4.713063)
      (xy 3.788378 -4.413832)
      (xy 4.049467 -4.107041)
      (xy 4.284900 -3.789083)
      (xy 4.497062 -3.456352)
      (xy 4.688336 -3.105240)
      (xy 4.861108 -2.732139)
      (xy 4.945942 -2.524369)
      (xy 5.083939 -2.128739)
      (xy 5.193171 -1.722581)
      (xy 5.273452 -1.308038)
      (xy 5.324599 -0.887252)
      (xy 5.346425 -0.462365)
      (xy 5.338745 -0.035519)
      (xy 5.301374 0.391144)
      (xy 5.234647 0.812800)
      (xy 5.141604 1.212132)
      (xy 5.018724 1.608398)
      (xy 4.867435 1.998407)
      (xy 4.689162 2.378972)
      (xy 4.485330 2.746903)
      (xy 4.257366 3.099011)
      (xy 4.139943 3.261262)
      (xy 3.997057 3.436085)
      (xy 3.851366 3.582038)
      (xy 3.699640 3.701509)
      (xy 3.538645 3.796884)
      (xy 3.365151 3.870553)
      (xy 3.277156 3.898711)
      (xy 3.064117 3.945199)
      (xy 2.852870 3.960577)
      (xy 2.643052 3.944812)
      (xy 2.434302 3.897866)
      (xy 2.226258 3.819706)
      (xy 2.164084 3.790243)
      (xy 2.095467 3.757157)
      (xy 2.035382 3.729999)
      (xy 1.990199 3.711527)
      (xy 1.966286 3.704497)
      (xy 1.965991 3.704492)
      (xy 1.938328 3.714035)
      (xy 1.901570 3.737693)
      (xy 1.892522 3.744959)
      (xy 1.853173 3.795469)
      (xy 1.842382 3.852386)
      (xy 1.860324 3.909020)
      (xy 1.887415 3.942454)
      (xy 1.929017 3.973688)
      (xy 1.992293 4.011519)
      (xy 2.069482 4.052007)
      (xy 2.152827 4.091211)
      (xy 2.234567 4.125191)
      (xy 2.278571 4.141084)
      (xy 2.497266 4.198680)
      (xy 2.721924 4.227880)
      (xy 2.948690 4.229248)
      (xy 3.173709 4.203348)
      (xy 3.393127 4.150743)
      (xy 3.603089 4.071998)
      (xy 3.799740 3.967675)
      (xy 3.893575 3.904869)
      (xy 4.014796 3.808083)
      (xy 4.136080 3.692191)
      (xy 4.259161 3.555102)
      (xy 4.385776 3.394726)
      (xy 4.517660 3.208972)
      (xy 4.656549 2.995750)
      (xy 4.681673 2.955506)
      (xy 4.898244 2.577421)
      (xy 5.086439 2.187816)
      (xy 5.246257 1.788290)
      (xy 5.377699 1.380437)
      (xy 5.480765 0.965856)
      (xy 5.555455 0.546143)
      (xy 5.601770 0.122894)
      (xy 5.619710 -0.302292)
      (xy 5.609276 -0.727821)
      (xy 5.570466 -1.152093)
      (xy 5.503283 -1.573513)
      (xy 5.407725 -1.990484)
      (xy 5.283794 -2.401409)
      (xy 5.131489 -2.804691)
      (xy 4.950811 -3.198734)
      (xy 4.741759 -3.581939)
      (xy 4.680598 -3.683101)
      (xy 4.444714 -4.037314)
      (xy 4.184405 -4.376613)
      (xy 3.902186 -4.698441)
      (xy 3.600572 -5.000242)
      (xy 3.282079 -5.279458)
      (xy 2.949223 -5.533532)
      (xy 2.688492 -5.708053)
      (xy 2.607859 -5.758045)
      (xy 2.521867 -5.809986)
      (xy 2.435029 -5.861298)
      (xy 2.351857 -5.909405)
      (xy 2.276863 -5.951729)
      (xy 2.214560 -5.985694)
      (xy 2.169460 -6.008722)
      (xy 2.146077 -6.018236)
      (xy 2.145153 -6.018343)
      (xy 2.124666 -6.027241)
      (xy 2.106118 -6.039698)
      (xy 2.099286 -6.047250)
      (xy 2.096728 -6.058923)
      (xy 2.099709 -6.077707)
      (xy 2.109492 -6.106593)
      (xy 2.127341 -6.148571)
      (xy 2.154522 -6.206630)
      (xy 2.192298 -6.283760)
      (xy 2.241934 -6.382952)
      (xy 2.299230 -6.496401)
      (xy 2.353972 -6.604234)
      (xy 2.404504 -6.703154)
      (xy 2.449027 -6.789686)
      (xy 2.485741 -6.860354)
      (xy 2.512846 -6.911686)
      (xy 2.528542 -6.940206)
      (xy 2.531469 -6.944745)
      (xy 2.551795 -6.945288)
      (xy 2.596380 -6.932786)
      (xy 2.661851 -6.908817)
      (xy 2.744835 -6.874956)
      (xy 2.841960 -6.832780)
      (xy 2.949852 -6.783865)
      (xy 3.065138 -6.729788)
      (xy 3.184447 -6.672126)
      (xy 3.304404 -6.612454)
      (xy 3.421637 -6.552349)
      (xy 3.532774 -6.493388)
      (xy 3.634440 -6.437147)
      (xy 3.704492 -6.396482)
      (xy 3.867704 -6.296483)
      (xy 4.034919 -6.189033)
      (xy 4.194562 -6.081698)
      (xy 4.306277 -6.003002)
      (xy 4.361731 -5.963088)
      (xy 4.412041 -5.927115)
      (xy 4.448355 -5.901408)
      (xy 4.454769 -5.896939)
      (xy 4.483519 -5.875614)
      (xy 4.529090 -5.840231)
      (xy 4.584124 -5.796547)
      (xy 4.618892 -5.768531)
      (xy 5.007325 -5.434658)
      (xy 5.369231 -5.084279)
      (xy 5.704716 -4.717263)
      (xy 6.013882 -4.333479)
      (xy 6.296834 -3.932796)
      (xy 6.553675 -3.515081)
      (xy 6.784510 -3.080204)
      (xy 6.842253 -2.960120)
      (xy 6.906946 -2.821576)
      (xy 6.960581 -2.703809)
      (xy 7.006110 -2.599653)
      (xy 7.046488 -2.501939)
      (xy 7.084670 -2.403500)
      (xy 7.123610 -2.297169)
      (xy 7.166261 -2.175778)
      (xy 7.170040 -2.164862)
      (xy 7.319560 -1.686490)
      (xy 7.437895 -1.206143)
      (xy 7.525076 -0.723522)
      (xy 7.581133 -0.238329)
      (xy 7.606098 0.249733)
      (xy 7.600001 0.740962)
      (xy 7.562874 1.235655)
      (xy 7.542518 1.409960)
      (xy 7.464435 1.899656)
      (xy 7.356359 2.381335)
      (xy 7.218796 2.853848)
      (xy 7.052250 3.316047)
      (xy 6.857228 3.766783)
      (xy 6.634232 4.204908)
      (xy 6.383770 4.629273)
      (xy 6.106345 5.038730)
      (xy 5.802463 5.432130)
      (xy 5.741637 5.505131)
      (xy 5.633404 5.628985)
      (xy 5.507381 5.765717)
      (xy 5.370167 5.908650)
      (xy 5.228363 6.051107)
      (xy 5.088568 6.186411)
      (xy 4.957382 6.307884)
      (xy 4.884615 6.372158)
      (xy 4.633862 6.578826)
      (xy 4.365723 6.781716)
      (xy 4.089465 6.974249)
      (xy 3.814356 7.149843)
      (xy 3.666847 7.236842)
      (xy 3.594442 7.279544)
      (xy 3.530600 7.319692)
      (xy 3.480949 7.353561)
      (xy 3.451119 7.377426)
      (xy 3.446417 7.382706)
      (xy 3.425721 7.436012)
      (xy 3.426571 7.496123)
      (xy 3.448138 7.549292)
      (xy 3.457124 7.560377)
      (xy 3.494271 7.587727)
      (xy 3.539485 7.595960)
      (xy 3.596916 7.584506)
      (xy 3.670717 7.552799)
      (xy 3.724573 7.523823)
      (xy 4.156326 7.261699)
      (xy 4.568510 6.975912)
      (xy 4.960350 6.667525)
      (xy 5.331073 6.337602)
      (xy 5.679907 5.987209)
      (xy 6.006078 5.617408)
      (xy 6.308812 5.229265)
      (xy 6.587337 4.823844)
      (xy 6.840880 4.402209)
      (xy 7.068667 3.965425)
      (xy 7.269926 3.514555)
      (xy 7.443882 3.050665)
      (xy 7.589763 2.574818)
      (xy 7.706796 2.088079)
      (xy 7.719826 2.024184)
      (xy 7.765964 1.778253)
      (xy 7.802563 1.547309)
      (xy 7.830599 1.322198)
      (xy 7.851048 1.093769)
      (xy 7.864886 0.852870)
      (xy 7.873088 0.590347)
      (xy 7.873174 0.586154)
      (xy 7.872173 0.136075)
      (xy 7.849835 -0.296123)
      (xy 7.805328 -0.716162)
      (xy 7.737817 -1.129761)
      (xy 7.646468 -1.542641)
      (xy 7.530447 -1.960521)
      (xy 7.477276 -2.129332)
      (xy 7.350432 -2.487057)
      (xy 7.202456 -2.847239)
      (xy 7.036191 -3.204489)
      (xy 6.854478 -3.553414)
      (xy 6.660157 -3.888624)
      (xy 6.456070 -4.204727)
      (xy 6.245058 -4.496332)
      (xy 6.198220 -4.556369)
      (xy 6.146721 -4.621426)
      (xy 6.091081 -4.691676)
      (xy 6.042382 -4.753127)
      (xy 6.037389 -4.759425)
      (xy 5.868508 -4.961501)
      (xy 5.676145 -5.172263)
      (xy 5.465074 -5.387020)
      (xy 5.240069 -5.601083)
      (xy 5.005902 -5.809762)
      (xy 4.767349 -6.008365)
      (xy 4.761462 -6.013087)
      (xy 4.496599 -6.213451)
      (xy 4.206825 -6.410945)
      (xy 3.898480 -6.601892)
      (xy 3.577903 -6.782612)
      (xy 3.251436 -6.949426)
      (xy 2.925417 -7.098656)
      (xy 2.800339 -7.151059)
      (xy 2.712872 -7.186818)
      (xy 2.616290 -7.226468)
      (xy 2.525653 -7.263818)
      (xy 2.485292 -7.280517)
      (xy 2.351511 -7.330966)
      (xy 2.195647 -7.381297)
      (xy 2.026778 -7.428886)
      (xy 1.853981 -7.471105)
      (xy 1.750234 -7.493159)
      (xy 1.615185 -7.518955)
      (xy 1.491473 -7.539779)
      (xy 1.372781 -7.556219)
      (xy 1.252792 -7.568865)
      (xy 1.125187 -7.578307)
      (xy 0.983651 -7.585134)
      (xy 0.821865 -7.589935)
      (xy 0.685254 -7.592533)
      (xy 0.433093 -7.594482)
      (xy 0.202792 -7.591430)
      (xy -0.010563 -7.582554)
      (xy -0.211884 -7.567031)
      (xy -0.406084 -7.544038)
      (xy -0.598077 -7.512754)
      (xy -0.792775 -7.472355)
      (xy -0.995091 -7.422019)
      (xy -1.209938 -7.360923)
      (xy -1.442231 -7.288244)
      (xy -1.696880 -7.203161)
      (xy -1.750646 -7.184680)
      (xy -1.941627 -7.118127)
      (xy -2.106694 -7.058961)
      (xy -2.249821 -7.005410)
      (xy -2.374985 -6.955704)
      (xy -2.486160 -6.908071)
      (xy -2.587322 -6.860742)
      (xy -2.682448 -6.811943)
      (xy -2.775511 -6.759905)
      (xy -2.870488 -6.702857)
      (xy -2.962031 -6.645032)
      (xy -3.012358 -6.611748)
      (xy -3.072432 -6.570636)
      (xy -3.136373 -6.525890)
      (xy -3.198305 -6.481707)
      (xy -3.252350 -6.442281)
      (xy -3.292630 -6.411809)
      (xy -3.313267 -6.394487)
      (xy -3.313723 -6.393990)
      (xy -3.328708 -6.380414)
      (xy -3.361343 -6.352418)
      (xy -3.405190 -6.315512)
      (xy -3.415323 -6.307058)
      (xy -3.562435 -6.176973)
      (xy -3.716009 -6.027569)
      (xy -3.868075 -5.867259)
      (xy -4.010665 -5.704457)
      (xy -4.135809 -5.547574)
      (xy -4.139623 -5.542496)
      (xy -4.209486 -5.431124)
      (xy -4.252234 -5.320980)
      (xy -4.267268 -5.214933)
      (xy -8.526556 -5.214933)
      (xy -8.266156 -5.621816)
      (xy -7.995223 -6.001373)
      (xy -7.701367 -6.373850)
      (xy -7.385924 -6.736314)
      (xy -7.053165 -7.084498)
      (xy -6.707356 -7.414133)
      (xy -6.352768 -7.720950)
      (xy -6.001635 -7.994814)
      (xy -5.942974 -8.038386)
      (xy -5.893922 -8.075400)
      (xy -5.859765 -8.101827)
      (xy -5.845908 -8.113481)
      (xy -5.828389 -8.127528)
      (xy -5.788691 -8.155529)
      (xy -5.731045 -8.194712)
      (xy -5.659685 -8.242307)
      (xy -5.578843 -8.295544)
      (xy -5.492752 -8.351652)
      (xy -5.405644 -8.407862)
      (xy -5.321753 -8.461403)
      (xy -5.245310 -8.509505)
      (xy -5.180549 -8.549397)
      (xy -5.171757 -8.554711)
      (xy -4.680305 -8.832900)
      (xy -4.178509 -9.081588)
      (xy -3.666319 -9.300795)
      (xy -3.143686 -9.490538)
      (xy -2.610562 -9.650834)
      (xy -2.066897 -9.781701)
      (xy -1.512643 -9.883157)
      (xy -1.500554 -9.885024)
      (xy -0.960558 -9.952447)
      (xy -0.415407 -9.989713)
      (xy 0.132498 -9.996986)
    )

    (stroke (width 0.000000) (type solid)) (fill solid) (layer "F.SilkS") (tstamp c31e79b5-95ed-4731-8b79-8c3072f078ce))
  (fp_poly
    (pts
      (xy -5.260554 4.679140)
      (xy -5.085791 4.714721)
      (xy -4.921728 4.767039)
      (xy -4.774302 4.834533)
      (xy -4.649446 4.915641)
      (xy -4.642339 4.921279)
      (xy -4.595429 4.960992)
      (xy -4.548350 5.004185)
      (xy -4.506442 5.045497)
      (xy -4.475043 5.079567)
      (xy -4.459492 5.101035)
      (xy -4.459140 5.105211)
      (xy -4.475010 5.102037)
      (xy -4.513411 5.088993)
      (xy -4.568052 5.068325)
      (xy -4.614617 5.049698)
      (xy -4.740892 5.000304)
      (xy -4.851829 4.961310)
      (xy -4.944400 4.933607)
      (xy -5.015574 4.918089)
      (xy -5.062324 4.915647)
      (xy -5.066974 4.916449)
      (xy -5.116831 4.941716)
      (xy -5.155280 4.986966)
      (xy -5.173376 5.041017)
      (xy -5.173785 5.049975)
      (xy -5.166425 5.090790)
      (xy -5.142041 5.126435)
      (xy -5.097174 5.159456)
      (xy -5.028366 5.192397)
      (xy -4.932159 5.227805)
      (xy -4.932157 5.227806)
      (xy -4.828429 5.264371)
      (xy -4.735127 5.300229)
      (xy -4.655700 5.333781)
      (xy -4.593595 5.363427)
      (xy -4.552262 5.387566)
      (xy -4.535147 5.404599)
      (xy -4.537915 5.410729)
      (xy -4.567477 5.418537)
      (xy -4.620557 5.424752)
      (xy -4.689444 5.429134)
      (xy -4.766424 5.431443)
      (xy -4.843784 5.431438)
      (xy -4.913811 5.428877)
      (xy -4.965136 5.424057)
      (xy -5.170308 5.381972)
      (xy -5.359813 5.316455)
      (xy -5.531231 5.228714)
      (xy -5.682139 5.119954)
      (xy -5.792052 5.012361)
      (xy -5.824884 4.971868)
      (xy -5.862420 4.920442)
      (xy -5.900744 4.864184)
      (xy -5.935943 4.809193)
      (xy -5.964102 4.761570)
      (xy -5.981307 4.727414)
      (xy -5.984073 4.713106)
      (xy -5.964740 4.707222)
      (xy -5.921052 4.699348)
      (xy -5.859782 4.690386)
      (xy -5.787702 4.681236)
      (xy -5.711586 4.672801)
      (xy -5.638205 4.665981)
      (xy -5.618446 4.664438)
      (xy -5.440084 4.661859)
    )

    (stroke (width 0.000000) (type solid)) (fill solid) (layer "F.SilkS") (tstamp 7c16c42b-3346-489c-8c8f-01b27ae09b2a))
  (fp_poly
    (pts
      (xy -4.139096 1.981189)
      (xy -4.106840 2.012733)
      (xy -4.065323 2.058725)
      (xy -4.019151 2.113778)
      (xy -3.972932 2.172506)
      (xy -3.931272 2.229523)
      (xy -3.916602 2.251120)
      (xy -3.796424 2.458587)
      (xy -3.706625 2.672063)
      (xy -3.646562 2.893682)
      (xy -3.615593 3.125579)
      (xy -3.610708 3.267747)
      (xy -3.620273 3.482412)
      (xy -3.648145 3.690043)
      (xy -3.693086 3.884251)
      (xy -3.753862 4.058647)
      (xy -3.771452 4.098546)
      (xy -3.824113 4.212492)
      (xy -3.834953 4.079631)
      (xy -3.855902 3.789459)
      (xy -3.869567 3.522566)
      (xy -3.875802 3.282041)
      (xy -3.876196 3.219938)
      (xy -3.877556 3.095371)
      (xy -3.881958 2.998639)
      (xy -3.890552 2.926370)
      (xy -3.904488 2.875196)
      (xy -3.924914 2.841746)
      (xy -3.952981 2.822650)
      (xy -3.989837 2.814539)
      (xy -4.014802 2.813538)
      (xy -4.067917 2.818769)
      (xy -4.106615 2.836987)
      (xy -4.132909 2.871980)
      (xy -4.148812 2.927536)
      (xy -4.156337 3.007443)
      (xy -4.157698 3.082393)
      (xy -4.156613 3.168132)
      (xy -4.153651 3.278045)
      (xy -4.149134 3.405122)
      (xy -4.143384 3.542354)
      (xy -4.136723 3.682731)
      (xy -4.129474 3.819243)
      (xy -4.121959 3.944879)
      (xy -4.114500 4.052631)
      (xy -4.111169 4.094361)
      (xy -4.105606 4.165409)
      (xy -4.101846 4.223984)
      (xy -4.100243 4.263708)
      (xy -4.100990 4.278138)
      (xy -4.113211 4.270016)
      (xy -4.141309 4.244074)
      (xy -4.179874 4.205386)
      (xy -4.191708 4.193069)
      (xy -4.278822 4.082145)
      (xy -4.354221 3.946874)
      (xy -4.416486 3.792426)
      (xy -4.464201 3.623968)
      (xy -4.495947 3.446671)
      (xy -4.510308 3.265704)
      (xy -4.505866 3.086237)
      (xy -4.503207 3.056923)
      (xy -4.485578 2.909920)
      (xy -4.462681 2.775701)
      (xy -4.432118 2.643624)
      (xy -4.391488 2.503048)
      (xy -4.349630 2.375877)
      (xy -4.326526 2.313584)
      (xy -4.297639 2.243233)
      (xy -4.265689 2.170579)
      (xy -4.233400 2.101383)
      (xy -4.203493 2.041400)
      (xy -4.178692 1.996390)
      (xy -4.161718 1.972110)
      (xy -4.157485 1.969477)
    )

    (stroke (width 0.000000) (type solid)) (fill solid) (layer "F.SilkS") (tstamp ceec97c4-32dc-4883-9a65-6cc257c1d764))
  (fp_poly
    (pts
      (xy 0.368346 -1.468775)
      (xy 0.459675 -1.463275)
      (xy 0.543201 -1.457738)
      (xy 0.612576 -1.452623)
      (xy 0.661451 -1.448390)
      (xy 0.679878 -1.446228)
      (xy 0.808895 -1.425534)
      (xy 0.913507 -1.407856)
      (xy 1.000274 -1.391932)
      (xy 1.075757 -1.376501)
      (xy 1.146518 -1.360302)
      (xy 1.211384 -1.344077)
      (xy 1.436413 -1.277525)
      (xy 1.639892 -1.199987)
      (xy 1.820201 -1.112431)
      (xy 1.975717 -1.015828)
      (xy 2.104821 -0.911145)
      (xy 2.205890 -0.799352)
      (xy 2.258646 -0.718192)
      (xy 2.281376 -0.674235)
      (xy 2.295047 -0.636886)
      (xy 2.301678 -0.595776)
      (xy 2.303288 -0.540533)
      (xy 2.302603 -0.492369)
      (xy 2.299278 -0.434784)
      (xy 2.291637 -0.353176)
      (xy 2.280470 -0.254364)
      (xy 2.266566 -0.145167)
      (xy 2.250715 -0.032404)
      (xy 2.244674 0.007815)
      (xy 2.228099 0.116475)
      (xy 2.208036 0.248495)
      (xy 2.185628 0.396322)
      (xy 2.162018 0.552399)
      (xy 2.138352 0.709172)
      (xy 2.115771 0.859086)
      (xy 2.109804 0.898769)
      (xy 2.089371 1.034618)
      (xy 2.068997 1.169878)
      (xy 2.049512 1.299063)
      (xy 2.031745 1.416688)
      (xy 2.016522 1.517267)
      (xy 2.004673 1.595316)
      (xy 2.000055 1.625600)
      (xy 1.984904 1.726122)
      (xy 1.966698 1.849174)
      (xy 1.946659 1.986316)
      (xy 1.926007 2.129112)
      (xy 1.905965 2.269123)
      (xy 1.887752 2.397910)
      (xy 1.874505 2.493108)
      (xy 1.839588 2.662738)
      (xy 1.783234 2.831754)
      (xy 1.708840 2.992900)
      (xy 1.619803 3.138922)
      (xy 1.519520 3.262564)
      (xy 1.509217 3.273202)
      (xy 1.466229 3.313926)
      (xy 1.417926 3.353100)
      (xy 1.359198 3.394199)
      (xy 1.284939 3.440698)
      (xy 1.190041 3.496073)
      (xy 1.140138 3.524309)
      (xy 1.031347 3.585561)
      (xy 0.908177 3.655089)
      (xy 0.782191 3.726354)
      (xy 0.664954 3.792816)
      (xy 0.603424 3.827781)
      (xy 0.339341 3.978031)
      (xy 0.223499 4.157784)
      (xy 0.180437 4.223669)
      (xy 0.142922 4.279320)
      (xy 0.114368 4.319800)
      (xy 0.098189 4.340174)
      (xy 0.096357 4.341598)
      (xy 0.083698 4.331062)
      (xy 0.057402 4.299368)
      (xy 0.021230 4.251331)
      (xy -0.021056 4.191767)
      (xy -0.023902 4.187646)
      (xy -0.068234 4.123783)
      (xy -0.108038 4.067221)
      (xy -0.138914 4.024160)
      (xy -0.156308 4.000993)
      (xy -0.176204 3.985535)
      (xy -0.219419 3.957578)
      (xy -0.281833 3.919599)
      (xy -0.359323 3.874073)
      (xy -0.447767 3.823477)
      (xy -0.508000 3.789699)
      (xy -0.610050 3.732913)
      (xy -0.712137 3.676105)
      (xy -0.808071 3.622721)
      (xy -0.891659 3.576206)
      (xy -0.956710 3.540005)
      (xy -0.976923 3.528756)
      (xy -1.113022 3.450506)
      (xy -1.224392 3.380265)
      (xy -1.315363 3.314512)
      (xy -1.390265 3.249726)
      (xy -1.453427 3.182387)
      (xy -1.509179 3.108974)
      (xy -1.528201 3.080485)
      (xy -1.578979 2.996726)
      (xy -1.621870 2.912674)
      (xy -1.658207 2.823700)
      (xy -1.689322 2.725177)
      (xy -1.716548 2.612475)
      (xy -1.741218 2.480969)
      (xy -1.764665 2.326029)
      (xy -1.780778 2.203432)
      (xy -1.794091 2.098104)
      (xy -1.810165 1.972179)
      (xy -1.828567 1.828951)
      (xy -1.848867 1.671715)
      (xy -1.870633 1.503765)
      (xy -1.893432 1.328394)
      (xy -1.916835 1.148898)
      (xy -1.940408 0.968570)
      (xy -1.963721 0.790705)
      (xy -1.986341 0.618597)
      (xy -2.007838 0.455540)
      (xy -2.022190 0.347074)
      (xy -1.625701 0.347074)
      (xy -1.623857 0.370259)
      (xy -1.618494 0.421750)
      (xy -1.609938 0.498830)
      (xy -1.598510 0.598781)
      (xy -1.584534 0.718884)
      (xy -1.568333 0.856421)
      (xy -1.550232 1.008674)
      (xy -1.530553 1.172926)
      (xy -1.509620 1.346458)
      (xy -1.487756 1.526552)
      (xy -1.465285 1.710490)
      (xy -1.442529 1.895554)
      (xy -1.419813 2.079026)
      (xy -1.415469 2.113960)
      (xy -1.399585 2.240303)
      (xy -1.386452 2.340112)
      (xy -1.375166 2.417901)
      (xy -1.364819 2.478181)
      (xy -1.354506 2.525467)
      (xy -1.343320 2.564271)
      (xy -1.330356 2.599106)
      (xy -1.314706 2.634485)
      (xy -1.308161 2.648393)
      (xy -1.235380 2.783707)
      (xy -1.153822 2.903743)
      (xy -1.066924 3.004451)
      (xy -0.978121 3.081780)
      (xy -0.902394 3.126701)
      (xy -0.850744 3.148151)
      (xy -0.814672 3.155341)
      (xy -0.782265 3.148892)
      (xy -0.751395 3.134547)
      (xy -0.711282 3.105340)
      (xy -0.691932 3.065118)
      (xy -0.687754 3.016738)
      (xy -0.693663 2.961805)
      (xy -0.716024 2.924546)
      (xy -0.761791 2.893814)
      (xy -0.765687 2.891805)
      (xy -0.834129 2.843799)
      (xy -0.904470 2.770826)
      (xy -0.972120 2.678498)
      (xy -1.032488 2.572429)
      (xy -1.040655 2.555631)
      (xy -1.107538 2.414954)
      (xy -1.227075 1.406769)
      (xy -1.248036 1.231007)
      (xy -1.268282 1.063206)
      (xy -1.287463 0.906144)
      (xy -1.305228 0.762605)
      (xy -1.321227 0.635369)
      (xy -1.335108 0.527216)
      (xy -1.346522 0.440929)
      (xy -1.355117 0.379287)
      (xy -1.360543 0.345072)
      (xy -1.361508 0.340541)
      (xy -1.390087 0.280584)
      (xy -1.438134 0.244937)
      (xy -1.496927 0.234461)
      (xy -1.548170 0.246760)
      (xy -1.592522 0.278179)
      (xy -1.620587 0.320500)
      (xy -1.625701 0.347074)
      (xy -2.022190 0.347074)
      (xy -2.027780 0.304828)
      (xy -2.045734 0.169756)
      (xy -2.061271 0.053618)
      (xy -2.073957 -0.040292)
      (xy -2.083361 -0.108680)
      (xy -2.087582 -0.138381)
      (xy -2.098717 -0.230517)
      (xy -2.107907 -0.335687)
      (xy -2.113652 -0.435670)
      (xy -2.114583 -0.466627)
      (xy -2.115542 -0.542601)
      (xy -2.113792 -0.596082)
      (xy -2.107901 -0.635814)
      (xy -2.096434 -0.670540)
      (xy -2.077958 -0.709004)
      (xy -2.073404 -0.717708)
      (xy -1.997331 -0.830680)
      (xy -1.892861 -0.936925)
      (xy -1.762273 -1.035742)
      (xy -1.607846 -1.126430)
      (xy -1.431858 -1.208289)
      (xy -1.236589 -1.280617)
      (xy -1.024316 -1.342714)
      (xy -0.797318 -1.393879)
      (xy -0.557874 -1.433410)
      (xy -0.308263 -1.460607)
      (xy -0.050763 -1.474770)
      (xy 0.212347 -1.475196)
    )

    (stroke (width 0.000000) (type solid)) (fill solid) (layer "F.SilkS") (tstamp 9e19043d-2c59-4512-b486-461ed7a76858))
  (fp_poly
    (pts
      (xy 0.164041 -3.193922)
      (xy 0.290951 -3.190418)
      (xy 0.402572 -3.184487)
      (xy 0.491415 -3.176128)
      (xy 0.500184 -3.174963)
      (xy 0.811689 -3.120200)
      (xy 1.107483 -3.044766)
      (xy 1.386202 -2.949550)
      (xy 1.646482 -2.835443)
      (xy 1.886960 -2.703336)
      (xy 2.106272 -2.554120)
      (xy 2.303054 -2.388685)
      (xy 2.475943 -2.207922)
      (xy 2.623574 -2.012721)
      (xy 2.744584 -1.803974)
      (xy 2.804981 -1.669781)
      (xy 2.872731 -1.461011)
      (xy 2.909985 -1.247984)
      (xy 2.916834 -1.032899)
      (xy 2.893369 -0.817955)
      (xy 2.839682 -0.605350)
      (xy 2.755864 -0.397284)
      (xy 2.751769 -0.388847)
      (xy 2.719225 -0.326100)
      (xy 2.681951 -0.260253)
      (xy 2.643159 -0.196233)
      (xy 2.606062 -0.138966)
      (xy 2.573870 -0.093376)
      (xy 2.549797 -0.064389)
      (xy 2.537055 -0.056932)
      (xy 2.536202 -0.058286)
      (xy 2.536256 -0.080378)
      (xy 2.541157 -0.125181)
      (xy 2.549946 -0.184684)
      (xy 2.554787 -0.213398)
      (xy 2.572372 -0.346450)
      (xy 2.579026 -0.476651)
      (xy 2.574853 -0.596505)
      (xy 2.559959 -0.698516)
      (xy 2.547366 -0.743922)
      (xy 2.484497 -0.879966)
      (xy 2.392891 -1.008789)
      (xy 2.274386 -1.129686)
      (xy 2.130820 -1.241951)
      (xy 1.964030 -1.344879)
      (xy 1.775854 -1.437764)
      (xy 1.568130 -1.519901)
      (xy 1.342697 -1.590584)
      (xy 1.101391 -1.649109)
      (xy 0.846052 -1.694769)
      (xy 0.578516 -1.726859)
      (xy 0.300621 -1.744674)
      (xy 0.014206 -1.747509)
      (xy -0.062523 -1.745671)
      (xy -0.211446 -1.740158)
      (xy -0.338155 -1.733102)
      (xy -0.451693 -1.723553)
      (xy -0.561102 -1.710559)
      (xy -0.675426 -1.693171)
      (xy -0.803706 -1.670438)
      (xy -0.836246 -1.664332)
      (xy -1.124893 -1.599553)
      (xy -1.387200 -1.519214)
      (xy -1.624193 -1.422877)
      (xy -1.836895 -1.310101)
      (xy -2.026331 -1.180445)
      (xy -2.098202 -1.121712)
      (xy -2.169184 -1.051005)
      (xy -2.238296 -0.965170)
      (xy -2.299288 -0.873344)
      (xy -2.345913 -0.784666)
      (xy -2.366773 -0.728950)
      (xy -2.384548 -0.633160)
      (xy -2.390375 -0.509057)
      (xy -2.384251 -0.356465)
      (xy -2.366174 -0.175208)
      (xy -2.359707 -0.124799)
      (xy -2.349027 -0.042444)
      (xy -2.340458 0.028139)
      (xy -2.334612 0.081542)
      (xy -2.332096 0.112359)
      (xy -2.332353 0.117720)
      (xy -2.344695 0.111803)
      (xy -2.352518 0.103931)
      (xy -2.455864 -0.019203)
      (xy -2.540695 -0.132640)
      (xy -2.613321 -0.245681)
      (xy -2.680054 -0.367628)
      (xy -2.701175 -0.410013)
      (xy -2.768305 -0.571949)
      (xy -2.816524 -0.746400)
      (xy -2.847869 -0.940782)
      (xy -2.848491 -0.946290)
      (xy -2.855027 -1.117680)
      (xy -2.839387 -1.300044)
      (xy -2.803293 -1.484199)
      (xy -2.748467 -1.660963)
      (xy -2.688929 -1.797539)
      (xy -2.565332 -2.007526)
      (xy -2.414694 -2.204373)
      (xy -2.238829 -2.386969)
      (xy -2.039550 -2.554205)
      (xy -1.818670 -2.704972)
      (xy -1.578001 -2.838160)
      (xy -1.319358 -2.952660)
      (xy -1.044553 -3.047363)
      (xy -0.755398 -3.121160)
      (xy -0.453708 -3.172940)
      (xy -0.437662 -3.175016)
      (xy -0.346669 -3.183656)
      (xy -0.233511 -3.189865)
      (xy -0.105680 -3.193646)
      (xy 0.029334 -3.194998)
    )

    (stroke (width 0.000000) (type solid)) (fill solid) (layer "F.SilkS") (tstamp fe24d691-50f4-4f42-b271-51caf9d16505))
  (fp_poly
    (pts
      (xy 0.668758 -4.509728)
      (xy 0.664308 -4.343134)
      (xy 0.581686 -4.315195)
      (xy 0.461252 -4.258993)
      (xy 0.350243 -4.177559)
      (xy 0.254703 -4.076739)
      (xy 0.180680 -3.962380)
      (xy 0.153225 -3.900896)
      (xy 0.135718 -3.848426)
      (xy 0.124800 -3.796336)
      (xy 0.119104 -3.734630)
      (xy 0.117260 -3.653315)
      (xy 0.117231 -3.638058)
      (xy 0.117231 -3.470024)
      (xy -0.041312 -3.470027)
      (xy -0.115675 -3.470856)
      (xy -0.164341 -3.473880)
      (xy -0.192847 -3.479916)
      (xy -0.206728 -3.489776)
      (xy -0.209343 -3.494756)
      (xy -0.213643 -3.521068)
      (xy -0.216858 -3.569695)
      (xy -0.218472 -3.631696)
      (xy -0.218563 -3.654971)
      (xy -0.204093 -3.830461)
      (xy -0.161077 -3.994125)
      (xy -0.089025 -4.147112)
      (xy 0.012550 -4.290571)
      (xy 0.085236 -4.369917)
      (xy 0.210967 -4.481560)
      (xy 0.340626 -4.566042)
      (xy 0.481355 -4.627299)
      (xy 0.621866 -4.665506)
      (xy 0.673208 -4.676322)
    )

    (stroke (width 0.000000) (type solid)) (fill solid) (layer "F.SilkS") (tstamp d02d3721-0b69-4597-b195-31ae48c03918))
  (fp_poly
    (pts
      (xy -6.911131 2.904498)
      (xy -6.880355 2.933431)
      (xy -6.842185 2.976761)
      (xy -6.801404 3.028556)
      (xy -6.762798 3.082883)
      (xy -6.731151 3.133813)
      (xy -6.718923 3.157216)
      (xy -6.670275 3.276403)
      (xy -6.636393 3.395444)
      (xy -6.617620 3.509507)
      (xy -6.614298 3.613765)
      (xy -6.626767 3.703388)
      (xy -6.655369 3.773546)
      (xy -6.673640 3.797529)
      (xy -6.723427 3.835544)
      (xy -6.775474 3.843573)
      (xy -6.832356 3.821612)
      (xy -6.866096 3.797193)
      (xy -6.909722 3.749086)
      (xy -6.954739 3.678816)
      (xy -6.996737 3.594939)
      (xy -7.031303 3.506010)
      (xy -7.049691 3.441168)
      (xy -7.058886 3.378750)
      (xy -7.063016 3.301150)
      (xy -7.061781 3.233759)
      (xy -7.054646 3.157569)
      (xy -7.040767 3.096748)
      (xy -7.015950 3.035511)
      (xy -7.001245 3.005845)
      (xy -6.973129 2.954728)
      (xy -6.948150 2.915815)
      (xy -6.931169 2.896581)
      (xy -6.929728 2.895891)
    )

    (stroke (width 0.000000) (type solid)) (fill solid) (layer "F.SilkS") (tstamp 3558d91c-9b6f-468a-85a1-823c67943481))
  (fp_poly
    (pts
      (xy -7.506677 0.398393)
      (xy -7.359358 0.431947)
      (xy -7.215306 0.494048)
      (xy -7.079580 0.582030)
      (xy -6.967863 0.682038)
      (xy -6.901989 0.756206)
      (xy -6.859406 0.819376)
      (xy -6.836940 0.877184)
      (xy -6.831302 0.924391)
      (xy -6.842760 0.987278)
      (xy -6.876814 1.031126)
      (xy -6.930492 1.054883)
      (xy -7.000823 1.057499)
      (xy -7.084833 1.037921)
      (xy -7.117209 1.025510)
      (xy -7.259913 0.951797)
      (xy -7.381506 0.860418)
      (xy -7.478501 0.754145)
      (xy -7.502934 0.718758)
      (xy -7.543015 0.642365)
      (xy -7.574558 0.555811)
      (xy -7.593196 0.472507)
      (xy -7.596369 0.431953)
      (xy -7.596554 0.387167)
    )

    (stroke (width 0.000000) (type solid)) (fill solid) (layer "F.SilkS") (tstamp 9de6e867-ad84-4f00-9e2b-9d52c2114810))
  (fp_poly
    (pts
      (xy -6.707942 -2.321401)
      (xy -6.691777 -2.314321)
      (xy -6.648146 -2.274230)
      (xy -6.621419 -2.213170)
      (xy -6.610638 -2.135829)
      (xy -6.614844 -2.046894)
      (xy -6.633078 -1.951052)
      (xy -6.664380 -1.852990)
      (xy -6.707793 -1.757395)
      (xy -6.762358 -1.668954)
      (xy -6.827115 -1.592354)
      (xy -6.842458 -1.577719)
      (xy -6.906412 -1.524923)
      (xy -6.971203 -1.481192)
      (xy -7.029479 -1.450910)
      (xy -7.073886 -1.438462)
      (xy -7.076123 -1.438374)
      (xy -7.091001 -1.451853)
      (xy -7.104424 -1.485736)
      (xy -7.106996 -1.496646)
      (xy -7.116632 -1.580603)
      (xy -7.116568 -1.679779)
      (xy -7.107469 -1.779903)
      (xy -7.090001 -1.866700)
      (xy -7.089665 -1.867877)
      (xy -7.048260 -1.988614)
      (xy -6.998646 -2.095003)
      (xy -6.943123 -2.184463)
      (xy -6.883991 -2.254413)
      (xy -6.823551 -2.302274)
      (xy -6.764101 -2.325463)
    )

    (stroke (width 0.000000) (type solid)) (fill solid) (layer "F.SilkS") (tstamp d5800738-261e-4fed-a387-7ad60f373d6f))
  (fp_poly
    (pts
      (xy -5.639303 -4.125858)
      (xy -5.594442 -4.081342)
      (xy -5.556649 -4.017772)
      (xy -5.526930 -3.939129)
      (xy -5.506293 -3.849397)
      (xy -5.495744 -3.752555)
      (xy -5.496289 -3.652586)
      (xy -5.508936 -3.553470)
      (xy -5.534691 -3.459191)
      (xy -5.559145 -3.401977)
      (xy -5.592468 -3.342854)
      (xy -5.630922 -3.285651)
      (xy -5.669515 -3.236680)
      (xy -5.703255 -3.202257)
      (xy -5.727148 -3.188696)
      (xy -5.727787 -3.188677)
      (xy -5.744219 -3.201621)
      (xy -5.769451 -3.235946)
      (xy -5.798665 -3.284895)
      (xy -5.805687 -3.297979)
      (xy -5.838243 -3.368865)
      (xy -5.867243 -3.447402)
      (xy -5.885506 -3.512902)
      (xy -5.903466 -3.632700)
      (xy -5.907364 -3.750020)
      (xy -5.898210 -3.860303)
      (xy -5.877013 -3.958991)
      (xy -5.844785 -4.041524)
      (xy -5.802534 -4.103344)
      (xy -5.751269 -4.139893)
      (xy -5.746203 -4.141803)
      (xy -5.690226 -4.147339)
    )

    (stroke (width 0.000000) (type solid)) (fill solid) (layer "F.SilkS") (tstamp c9e14516-a6b7-42fd-b809-a5246de00b83))
)
